Exercise 2: t-tests
…
It is hypothesized that seedlings grown under conditions of severe
water limitation will allocate a greater proportion of carbon (hence,
biomass) to their root systems, and therefore will maintain a greater
root:shoot ratio.

Import the comma-delimited Excel spreadsheet, “ShootRoot.csv”, which contains only two
columns of data: Treatment (Wettest vs. Driest), and Root.Shoot (the
root:shoot ratio).

shootroot <- read_csv("ShootRoot.csv")
shootroot

## # A tibble: 46 × 2
##    Treatment Root.Shoot
##    <chr>          <dbl>
##  1 Wettest        0.419
##  2 Wettest        0.461
##  3 Wettest        0.449
##  4 Wettest        0.496
##  5 Wettest        0.462
##  6 Wettest        0.481
##  7 Wettest        0.468
##  8 Wettest        0.435
##  9 Wettest        0.568
## 10 Wettest        0.839
## # … with 36 more rows
…
